<?xml version="1.0" encoding="utf-8"?>
<!-- Generator: Adobe Illustrator 17.0.0, SVG Export Plug-In . SVG Version: 6.00 Build 0)  -->
<!DOCTYPE svg PUBLIC "-//W3C//DTD SVG 1.1//EN" "http://www.w3.org/Graphics/SVG/1.1/DTD/svg11.dtd">
<svg version="1.1" id="Capa_1" xmlns="http://www.w3.org/2000/svg" xmlns:xlink="http://www.w3.org/1999/xlink" x="0px" y="0px"
	 width="234.641px" height="40.19px" viewBox="0 0 234.641 40.19" enable-background="new 0 0 234.641 40.19" xml:space="preserve">
<g>
	<g>
		<path fill="#FFFFFF" d="M227.441,8.634c-0.304-0.53-0.719-0.945-1.241-1.246s-1.086-0.452-1.69-0.452s-1.17,0.151-1.694,0.454
			c-0.526,0.302-0.94,0.718-1.244,1.248c-0.303,0.53-0.456,1.097-0.456,1.702c0,0.6,0.152,1.16,0.456,1.684
			c0.303,0.524,0.719,0.938,1.245,1.242c0.527,0.303,1.091,0.456,1.693,0.456c0.601,0,1.165-0.152,1.692-0.458
			c0.527-0.305,0.942-0.72,1.244-1.242c0.302-0.523,0.454-1.089,0.454-1.7C227.899,9.726,227.745,9.163,227.441,8.634z
			 M227.038,11.793c-0.261,0.451-0.617,0.808-1.069,1.072c-0.452,0.263-0.935,0.395-1.45,0.395c-0.518,0-1.007-0.132-1.463-0.393
			c-0.458-0.262-0.817-0.619-1.077-1.072c-0.261-0.452-0.391-0.938-0.391-1.46c0-0.524,0.13-1.014,0.391-1.471
			c0.26-0.456,0.618-0.816,1.075-1.077c0.456-0.262,0.944-0.393,1.466-0.393c0.518,0,1.002,0.131,1.45,0.393
			c0.45,0.262,0.805,0.621,1.067,1.077c0.262,0.456,0.392,0.943,0.392,1.462C227.428,10.854,227.298,11.343,227.038,11.793z"/>
		<path fill="#FFFFFF" d="M226.068,11.631V11.19c0-0.276-0.03-0.471-0.09-0.585s-0.178-0.214-0.354-0.301
			c0.192-0.127,0.318-0.243,0.376-0.35c0.075-0.144,0.113-0.315,0.113-0.514c0-0.23-0.053-0.432-0.157-0.605
			c-0.105-0.173-0.241-0.298-0.408-0.374c-0.167-0.076-0.44-0.114-0.821-0.114h-1.628v3.906h0.618v-1.632h0.977
			c0.244,0,0.407,0.016,0.489,0.048c0.082,0.032,0.146,0.084,0.189,0.156c0.045,0.072,0.073,0.196,0.085,0.373l0.031,0.48
			c0.017,0.222,0.049,0.414,0.094,0.576h0.69l-0.064-0.104C226.114,12.012,226.068,11.84,226.068,11.631z M225.265,9.967
			c-0.103,0.067-0.3,0.1-0.591,0.1h-0.958V8.908h0.997c0.303,0,0.508,0.046,0.618,0.138s0.164,0.237,0.164,0.436
			C225.494,9.71,225.418,9.871,225.265,9.967z"/>
	</g>
	<g>
		<path fill="#FFFFFF" d="M5.404,10.284c0-1.138,0.279-1.959,0.837-2.461C6.798,7.321,7.669,7.07,8.852,7.07
			c1.25,0,2.165,0.48,2.746,1.44l9.609,15.502h0.067V9.715c0-1.763,0.881-2.645,2.645-2.645c1.763,0,2.645,0.882,2.645,2.645v18.917
			c0,1.116-0.257,1.964-0.77,2.545c-0.514,0.58-1.339,0.871-2.477,0.871c-0.849,0-1.473-0.1-1.875-0.301s-0.782-0.591-1.138-1.172
			l-9.542-15.066h-0.067v13.894c0,1.764-0.882,2.645-2.645,2.645c-1.764,0-2.645-0.881-2.645-2.645V10.284H5.404z"/>
		<path fill="#FFFFFF" d="M34.364,10.719c0-1.16,0.273-1.986,0.821-2.477c0.546-0.491,1.344-0.737,2.394-0.737h12.89
			c0.893,0,1.579,0.162,2.059,0.485c0.48,0.324,0.72,0.899,0.72,1.724c0,0.804-0.24,1.373-0.72,1.707
			c-0.48,0.335-1.167,0.502-2.059,0.502H39.855v5.223h9.307c0.803,0,1.434,0.151,1.892,0.452c0.457,0.301,0.686,0.854,0.686,1.657
			c0,0.782-0.229,1.328-0.686,1.64c-0.458,0.313-1.089,0.469-1.892,0.469h-9.307v5.826h10.881c0.893,0,1.579,0.162,2.059,0.485
			c0.48,0.324,0.72,0.899,0.72,1.724c0,0.804-0.24,1.373-0.72,1.707c-0.48,0.335-1.167,0.502-2.059,0.502H37.579
			c-1.049,0-1.847-0.245-2.394-0.737c-0.547-0.491-0.821-1.317-0.821-2.478V10.719z"/>
		<path fill="#FFFFFF" d="M65.234,8.744c0.223-0.603,0.552-1.032,0.988-1.289c0.435-0.256,0.999-0.385,1.691-0.385h1.306
			c0.714,0,1.317,0.14,1.808,0.418c0.491,0.279,0.871,0.809,1.138,1.59l6.629,18.448c0.134,0.38,0.257,0.765,0.368,1.155
			c0.112,0.391,0.168,0.709,0.168,0.954c0,0.67-0.251,1.239-0.753,1.707c-0.502,0.469-1.111,0.703-1.825,0.703
			c-1.272,0-2.098-0.502-2.478-1.507l-1.406-4.018h-8.839l-1.44,4.018c-0.335,1.004-1.15,1.507-2.444,1.507
			c-0.759,0-1.373-0.218-1.841-0.653c-0.469-0.435-0.703-1.021-0.703-1.758c0-0.245,0.055-0.563,0.167-0.954
			c0.112-0.39,0.234-0.775,0.368-1.155L65.234,8.744z M68.549,13.03h-0.067l-3.247,9.676h6.428L68.549,13.03z"/>
		<path fill="#FFFFFF" d="M88.269,12.126H83.08c-0.826,0-1.507-0.201-2.043-0.603c-0.535-0.402-0.803-0.971-0.803-1.707
			c0-0.737,0.268-1.306,0.803-1.707c0.536-0.402,1.217-0.603,2.043-0.603h15.87c0.826,0,1.506,0.201,2.042,0.603
			c0.536,0.402,0.804,0.971,0.804,1.707c0,0.737-0.268,1.306-0.804,1.707c-0.536,0.402-1.217,0.603-2.042,0.603h-5.19v17.176
			c0,0.826-0.246,1.49-0.737,1.992c-0.491,0.502-1.161,0.753-2.009,0.753c-0.826,0-1.49-0.251-1.992-0.753
			c-0.502-0.502-0.753-1.166-0.753-1.992C88.269,29.302,88.269,12.126,88.269,12.126z"/>
		<path fill="#FFFFFF" d="M107.42,9.815c0-0.826,0.251-1.49,0.753-1.992s1.166-0.753,1.992-0.753c0.848,0,1.518,0.251,2.009,0.753
			c0.49,0.502,0.737,1.166,0.737,1.992v19.486c0,0.826-0.246,1.49-0.737,1.992c-0.491,0.502-1.161,0.753-2.009,0.753
			c-0.826,0-1.49-0.251-1.992-0.753c-0.502-0.502-0.753-1.166-0.753-1.992V9.815z"/>
		<path fill="#FFFFFF" d="M120.661,14.687c0.502-1.529,1.256-2.874,2.26-4.034c1.005-1.16,2.248-2.07,3.733-2.729
			c1.484-0.658,3.164-0.988,5.039-0.988c1.495,0,2.851,0.207,4.068,0.619c1.216,0.413,2.248,0.949,3.097,1.607
			c0.848,0.658,1.49,1.351,1.925,2.076c0.435,0.726,0.653,1.389,0.653,1.992c0,1.652-0.826,2.477-2.478,2.477
			c-0.625,0-1.122-0.151-1.49-0.452s-0.765-0.753-1.188-1.356c-0.581-0.826-1.183-1.457-1.808-1.892s-1.552-0.653-2.779-0.653
			c-1.786,0-3.281,0.737-4.487,2.21s-1.808,3.471-1.808,5.993c0,1.138,0.123,2.199,0.368,3.181c0.245,0.982,0.624,1.853,1.138,2.612
			c0.513,0.759,1.188,1.351,2.025,1.774c0.837,0.424,1.825,0.636,2.963,0.636c1.072,0,1.909-0.235,2.511-0.703
			c0.603-0.469,1.216-1.149,1.841-2.042c0.469-0.647,0.876-1.122,1.222-1.423c0.346-0.301,0.775-0.452,1.289-0.452
			c0.714,0,1.34,0.19,1.875,0.569c0.536,0.38,0.804,0.893,0.804,1.54c0,0.849-0.246,1.691-0.737,2.528
			c-0.491,0.837-1.178,1.59-2.059,2.26c-0.882,0.67-1.903,1.194-3.063,1.574c-1.161,0.379-2.389,0.569-3.683,0.569
			c-3.817,0-6.769-1.077-8.856-3.231c-2.087-2.154-3.13-5.284-3.13-9.391C119.908,17.84,120.159,16.216,120.661,14.687z"/>
		<path fill="#FFFFFF" d="M147.529,9.815c0-0.826,0.251-1.49,0.753-1.992s1.166-0.753,1.992-0.753c0.848,0,1.518,0.251,2.009,0.753
			c0.49,0.502,0.737,1.166,0.737,1.992v7.969l8.638-9.509c0.379-0.402,0.725-0.703,1.038-0.904c0.312-0.201,0.692-0.301,1.138-0.301
			c0.692,0,1.3,0.201,1.825,0.603c0.524,0.402,0.787,0.938,0.787,1.607c0,0.38-0.079,0.715-0.234,1.004
			c-0.157,0.29-0.38,0.581-0.67,0.87l-5.625,5.926l6.663,10.145l0.201,0.301c0.558,0.849,0.837,1.473,0.837,1.875
			c0,0.938-0.273,1.613-0.82,2.026c-0.547,0.413-1.211,0.619-1.992,0.619c-0.581,0-1.044-0.1-1.39-0.301s-0.698-0.58-1.054-1.138
			l-6.328-9.776l-3.013,3.013v5.458c0,0.826-0.246,1.49-0.737,1.992c-0.491,0.502-1.161,0.753-2.009,0.753
			c-0.826,0-1.49-0.251-1.992-0.753c-0.502-0.502-0.753-1.166-0.753-1.992L147.529,9.815L147.529,9.815z"/>
		<path fill="#FFFFFF" d="M173.276,10.719c0-1.16,0.273-1.986,0.821-2.477c0.546-0.491,1.344-0.737,2.394-0.737h12.89
			c0.893,0,1.579,0.162,2.059,0.485c0.48,0.324,0.72,0.899,0.72,1.724c0,0.804-0.24,1.373-0.72,1.707
			c-0.48,0.335-1.167,0.502-2.059,0.502h-10.613v5.223h9.307c0.803,0,1.434,0.151,1.892,0.452c0.457,0.301,0.686,0.854,0.686,1.657
			c0,0.782-0.229,1.328-0.686,1.64c-0.458,0.313-1.089,0.469-1.892,0.469h-9.307v5.826h10.881c0.893,0,1.579,0.162,2.059,0.485
			c0.48,0.324,0.72,0.899,0.72,1.724c0,0.804-0.24,1.373-0.72,1.707c-0.48,0.335-1.167,0.502-2.059,0.502H176.49
			c-1.049,0-1.847-0.245-2.394-0.737c-0.547-0.491-0.821-1.317-0.821-2.478L173.276,10.719L173.276,10.719z"/>
		<path fill="#FFFFFF" d="M204.648,12.126h-5.189c-0.826,0-1.507-0.201-2.043-0.603c-0.535-0.402-0.803-0.971-0.803-1.707
			c0-0.737,0.268-1.306,0.803-1.707c0.536-0.402,1.217-0.603,2.043-0.603h15.87c0.826,0,1.506,0.201,2.042,0.603
			c0.536,0.402,0.804,0.971,0.804,1.707c0,0.737-0.268,1.306-0.804,1.707c-0.536,0.402-1.217,0.603-2.042,0.603h-5.19v17.176
			c0,0.826-0.246,1.49-0.737,1.992c-0.491,0.502-1.161,0.753-2.009,0.753c-0.826,0-1.49-0.251-1.992-0.753
			c-0.502-0.502-0.753-1.166-0.753-1.992L204.648,12.126L204.648,12.126z"/>
	</g>
</g>
</svg>
